{
  "resource_uri": "http://www.courtlistener.com/api/rest/v3/clusters/1729/",
  "absolute_url": "/opinion/1729/bloate-v-united-states/",
  "panel": [],
  "non_participating_judges": [],
  "docket": "http://www.courtlistener.com/api/rest/v3/dockets/1972648/",
  "sub_opinions": [
    "http://www.courtlistener.com/api/rest/v3/opinions/1729/"
  ],
  "judges": "",
  "per_curiam": false,
  "date_created": "2015-10-14T01:50:49.520181Z",
  "date_modified": "2015-11-08T00:27:04.996652Z",
  "date_filed": "2010-03-08",
  "slug": "bloate-v-united-states",
  "citation_id": 1730,
  "case_name_short": "Bloate",
  "case_name": "Bloate v. United States",
  "case_name_full": "",
  "federal_cite_one": "559 U.S. 196",
  "federal_cite_two": "130 S. Ct. 1345",
  "federal_cite_three": "176 L. Ed. 2d 54",
  "state_cite_one": "",
  "state_cite_two": "",
  "state_cite_three": "",
  "state_cite_regional": "",
  "specialty_cite_one": "",
  "scotus_early_cite": "",
  "lexis_cite": "2010 U.S. LEXIS 2205",
  "westlaw_cite": "",
  "neutral_cite": "",
  "scdb_id": "2009-032",
  "scdb_decision_direction": 2,
  "scdb_votes_majority": 7,
  "scdb_votes_minority": 2,
  "source": "C",
  "procedural_history": "",
  "attorneys": "",
  "nature_of_suit": "",
  "posture": "",
  "syllabus": "",
  "citation_count": 72,
  "precedential_status": "Published",
  "date_blocked": null,
  "blocked": false
}