{
  "resource_uri": "http://www.courtlistener.com/api/rest/v3/clusters/1735/",
  "absolute_url": "/opinion/1735/hertz-corp-v-friend/",
  "panel": [],
  "non_participating_judges": [],
  "docket": "http://www.courtlistener.com/api/rest/v3/dockets/27801/",
  "sub_opinions": [
    "http://www.courtlistener.com/api/rest/v3/opinions/1735/"
  ],
  "judges": "",
  "per_curiam": false,
  "date_created": "2015-11-02T18:23:32.718532Z",
  "date_modified": "2015-11-08T00:27:04.743081Z",
  "date_filed": "2010-02-23",
  "slug": "hertz-corp-v-friend",
  "citation_id": 1736,
  "case_name_short": "Friend",
  "case_name": "Hertz Corp. v. Friend",
  "case_name_full": "",
  "federal_cite_one": "559 U.S. 77",
  "federal_cite_two": "130 S. Ct. 1181",
  "federal_cite_three": "175 L. Ed. 2d 1029",
  "state_cite_one": "",
  "state_cite_two": "",
  "state_cite_three": "",
  "state_cite_regional": "",
  "specialty_cite_one": "",
  "scotus_early_cite": "",
  "lexis_cite": "2010 U.S. LEXIS 1897",
  "westlaw_cite": "",
  "neutral_cite": "",
  "scdb_id": "2009-023",
  "scdb_decision_direction": 2,
  "scdb_votes_majority": 9,
  "scdb_votes_minority": 0,
  "source": "C",
  "procedural_history": "",
  "attorneys": "",
  "nature_of_suit": "",
  "posture": "",
  "syllabus": "",
  "citation_count": 111,
  "precedential_status": "Published",
  "date_blocked": null,
  "blocked": false
}