{
  "resource_uri": "http://www.courtlistener.com/api/rest/v3/clusters/1740/",
  "absolute_url": "/opinion/1740/hemi-group-llc-v-city-of-new-york/",
  "panel": [],
  "non_participating_judges": [],
  "docket": "http://www.courtlistener.com/api/rest/v3/dockets/246823/",
  "sub_opinions": [
    "http://www.courtlistener.com/api/rest/v3/opinions/1740/"
  ],
  "judges": "",
  "per_curiam": false,
  "date_created": "2015-10-26T17:09:41.542414Z",
  "date_modified": "2015-12-11T20:38:03.177176Z",
  "date_filed": "2010-01-25",
  "slug": "hemi-group-llc-v-city-of-new-york",
  "citation_id": 1741,
  "case_name_short": "Hemi Group",
  "case_name": "Hemi Group, LLC v. City of New York",
  "case_name_full": "",
  "federal_cite_one": "559 U.S. 1",
  "federal_cite_two": "130 S. Ct. 983",
  "federal_cite_three": "175 L. Ed. 2d 943",
  "state_cite_one": "",
  "state_cite_two": "",
  "state_cite_three": "",
  "state_cite_regional": "",
  "specialty_cite_one": "",
  "scotus_early_cite": "",
  "lexis_cite": "2010 U.S. LEXIS 768",
  "westlaw_cite": "",
  "neutral_cite": "",
  "scdb_id": "2009-011",
  "scdb_decision_direction": 1,
  "scdb_votes_majority": 5,
  "scdb_votes_minority": 3,
  "source": "C",
  "procedural_history": "",
  "attorneys": "",
  "nature_of_suit": "",
  "posture": "",
  "syllabus": "",
  "citation_count": 71,
  "precedential_status": "Published",
  "date_blocked": null,
  "blocked": false
}