{
  "resource_uri": "http://www.courtlistener.com/api/rest/v3/clusters/1747/",
  "absolute_url": "/opinion/1747/hollingsworth-v-perry/",
  "panel": [],
  "non_participating_judges": [],
  "docket": "http://www.courtlistener.com/api/rest/v3/dockets/94885/",
  "sub_opinions": [
    "http://www.courtlistener.com/api/rest/v3/opinions/1747/"
  ],
  "judges": "",
  "per_curiam": false,
  "date_created": "2015-10-14T23:35:49.243643Z",
  "date_modified": "2015-11-08T00:27:04.587997Z",
  "date_filed": "2010-01-13",
  "slug": "hollingsworth-v-perry",
  "citation_id": 1748,
  "case_name_short": "Hollingsworth",
  "case_name": "Hollingsworth v. Perry",
  "case_name_full": "",
  "federal_cite_one": "558 U.S. 183",
  "federal_cite_two": "130 S. Ct. 705",
  "federal_cite_three": "175 L. Ed. 2d 657",
  "state_cite_one": "",
  "state_cite_two": "",
  "state_cite_three": "",
  "state_cite_regional": "",
  "specialty_cite_one": "",
  "scotus_early_cite": "",
  "lexis_cite": "2010 U.S. LEXIS 533",
  "westlaw_cite": "",
  "neutral_cite": "",
  "scdb_id": "2009-018",
  "scdb_decision_direction": 1,
  "scdb_votes_majority": 5,
  "scdb_votes_minority": 4,
  "source": "C",
  "procedural_history": "",
  "attorneys": "",
  "nature_of_suit": "",
  "posture": "",
  "syllabus": "",
  "citation_count": 157,
  "precedential_status": "Published",
  "date_blocked": null,
  "blocked": false
}