{
  "resource_uri": "http://www.courtlistener.com/api/rest/v3/clusters/2151/",
  "absolute_url": "/opinion/2151/noriega-v-pastrana/",
  "panel": [],
  "non_participating_judges": [],
  "docket": "http://www.courtlistener.com/api/rest/v3/dockets/146212/",
  "sub_opinions": [
    "http://www.courtlistener.com/api/rest/v3/opinions/2151/"
  ],
  "judges": "",
  "per_curiam": false,
  "date_created": "2014-12-21T07:42:06.956175Z",
  "date_modified": "2014-12-21T07:42:06.956175Z",
  "date_filed": "2010-01-25",
  "slug": "noriega-v-pastrana",
  "citation_id": 2139,
  "case_name_short": "Noriega",
  "case_name": "Noriega v. Pastrana",
  "case_name_full": "",
  "federal_cite_one": "",
  "federal_cite_two": "",
  "federal_cite_three": "",
  "state_cite_one": "",
  "state_cite_two": "",
  "state_cite_three": "",
  "state_cite_regional": "",
  "specialty_cite_one": "",
  "scotus_early_cite": "",
  "lexis_cite": "",
  "westlaw_cite": "",
  "neutral_cite": "",
  "scdb_id": "",
  "scdb_decision_direction": null,
  "scdb_votes_majority": null,
  "scdb_votes_minority": null,
  "source": "C",
  "procedural_history": "",
  "attorneys": "",
  "nature_of_suit": "",
  "posture": "",
  "syllabus": "",
  "citation_count": 0,
  "precedential_status": "Relating-to",
  "date_blocked": null,
  "blocked": false
}