{
  "resource_uri": "http://www.courtlistener.com/api/rest/v3/clusters/1728/",
  "absolute_url": "/opinion/1728/milavetz-gallop-milavetz-p-a-v-united-states/",
  "panel": [],
  "non_participating_judges": [],
  "docket": "http://www.courtlistener.com/api/rest/v3/dockets/1609463/",
  "sub_opinions": [
    "http://www.courtlistener.com/api/rest/v3/opinions/1728/"
  ],
  "judges": "",
  "per_curiam": false,
  "date_created": "2015-10-15T01:36:39.080336Z",
  "date_modified": "2015-12-11T20:38:03.122757Z",
  "date_filed": "2010-03-08",
  "slug": "milavetz-gallop-milavetz-p-a-v-united-states",
  "citation_id": 1729,
  "case_name_short": "Milavetz",
  "case_name": "Milavetz, Gallop & Milavetz, P. A. v. United States",
  "case_name_full": "",
  "federal_cite_one": "559 U.S. 229",
  "federal_cite_two": "130 S. Ct. 1324",
  "federal_cite_three": "176 L. Ed. 2d 79",
  "state_cite_one": "",
  "state_cite_two": "",
  "state_cite_three": "",
  "state_cite_regional": "",
  "specialty_cite_one": "",
  "scotus_early_cite": "",
  "lexis_cite": "2010 U.S. LEXIS 2206",
  "westlaw_cite": "",
  "neutral_cite": "",
  "scdb_id": "2009-031",
  "scdb_decision_direction": 2,
  "scdb_votes_majority": 9,
  "scdb_votes_minority": 0,
  "source": "C",
  "procedural_history": "",
  "attorneys": "",
  "nature_of_suit": "",
  "posture": "",
  "syllabus": "",
  "citation_count": 25,
  "precedential_status": "Published",
  "date_blocked": null,
  "blocked": false
}